<svg xmlns="http://www.w3.org/2000/svg" xmlns:xlink="http://www.w3.org/1999/xlink" width="100%" height="100%" viewBox="0 0 1949 1068">
  <defs>
    <path id="bg_1440-a" d="M59.9692197,61.8941905 L159.377288,61.8941905 C163.274209,61.8941905 166.433288,58.7351118 166.433288,54.8381907 L166.433288,7.96418162 C166.433288,4.06726054 163.274209,0.908181818 159.377288,0.908181818 L9.5268417,0.908181818 L9.5268417,0.908181818 C5.62992062,0.908181818 2.4708419,4.06726054 2.4708419,7.96418162 L2.4708419,7.96418162 L2.4708419,54.8381907 C2.4708419,58.7351118 5.62992062,61.8941905 9.5268417,61.8941905 L9.5268417,61.8941905 L35.1408856,61.8941905 L36.9291654,81.9226041 L59.9692197,61.8941905 Z"/>
    <path id="bg_1440-b" d="M60.0208603,61.902769 L159.569356,61.902769 C163.466277,61.902769 166.625356,58.7436903 166.625356,54.8467692 L166.625356,7.9643075 C166.625356,4.06738641 163.466277,0.908307692 159.569356,0.908307692 L9.52969311,0.908307692 L9.52969311,0.908307692 C5.63277203,0.908307692 2.47369331,4.06738641 2.47369331,7.9643075 L2.47369331,54.8467692 C2.47369331,58.7436903 5.63277203,61.902769 9.52969311,61.902769 L35.1830985,61.902769 L36.9630198,81.946644 L60.0208603,61.902769 Z"/>
    <path id="bg_1440-c" d="M61.8205685,63.0094011 L165.181013,63.0094011 C169.189274,63.0094011 172.438612,59.760063 172.438612,55.7518013 L172.438612,8.18214523 C172.438612,4.17388355 169.189274,0.924545455 165.181013,0.924545455 L9.81759577,0.924545455 L9.81759577,0.924545455 C5.80933409,0.924545455 2.55999599,4.17388355 2.55999599,8.18214523 L2.55999599,8.18214523 L2.55999599,55.7518013 C2.55999599,59.760063 5.80933409,63.0094011 9.81759577,63.0094011 L9.81759577,63.0094011 L36.4390613,63.0094011 L38.1057703,83.6243607 L61.8205685,63.0094011 Z"/>
    <path id="bg_1440-d" d="M57.7420762,60.2213745 L152.76606,60.2213745 C156.523805,60.2213745 159.570059,57.1751201 159.570059,53.4173748 L159.570059,53.4173748 L159.570059,7.68763611 C159.570059,3.92989081 156.523805,0.883636364 152.76606,0.883636364 L9.17295126,0.883636364 L9.17295126,0.883636364 C5.41520596,0.883636364 2.36895151,3.92989081 2.36895151,7.68763611 L2.36895151,7.68763611 L2.36895151,53.4173748 C2.36895151,57.1751201 5.41520596,60.2213745 9.17295126,60.2213745 L9.17295126,60.2213745 L33.6690621,60.2213745 L35.528942,79.5309575 L57.7420762,60.2213745 Z"/>
  </defs>
  <g fill="none" fill-rule="evenodd" transform="translate(-383 -178)">
    <rect width="2561" height="1440"/>
    <g transform="translate(384 179)">
      <g opacity=".23">
        <g stroke="#979797" stroke-linecap="round" stroke-width="2.822" transform="matrix(-1 0 0 1 37.792 0)">
          <path d="M2.18031968 15.2819056L2.18031968.72770979M16.7157842 21.1035839L25.5109506 9.51608345M22.52997 35.6577797L37.0654346 35.6577797"/>
        </g>
        <g transform="matrix(-1 0 0 1 194 27.75)">
          <use fill="#FFF" xlink:href="#bg_1440-a"/>
          <path stroke="#F5818F" stroke-width="2.822" d="M38.089003,79.0445144 L59.4415937,60.4829905 L159.377288,60.4829905 C162.494825,60.4829905 165.022088,57.9557275 165.022088,54.8381907 L165.022088,7.96418162 C165.022088,4.84664475 162.494825,2.31938178 159.377288,2.31938178 L9.5268417,2.31938178 C6.40930483,2.31938178 3.88204186,4.84664475 3.88204186,7.96418162 L3.88204186,54.8381907 C3.88204186,57.9557275 6.40930483,60.4829905 9.5268417,60.4829905 L36.4316976,60.4829905 L38.089003,79.0445144 Z"/>
          <path stroke="#979797" stroke-linecap="round" stroke-width="2.822" d="M31.3865015 26.7409091L141.488406 26.7409091M91.854034 41.8772727L142.243644 41.8772727"/>
        </g>
      </g>
      <g opacity=".12" transform="translate(1715 8)">
        <g stroke="#979797" stroke-linecap="round" stroke-width="2.822" transform="matrix(-1 0 0 1 119.955 0)">
          <path d="M2.11822163 14.8356923L2.11822163.706461538M16.2396992 20.4873846L24.784369 9.23822524M21.8882902 34.6166154L36.0097678 34.6166154"/>
        </g>
        <g transform="matrix(-1 0 0 1 169 80.738)">
          <use fill="#FFF" xlink:href="#bg_1440-b"/>
          <path stroke="#F5818F" stroke-width="2.822" d="M38.1240991,79.0674748 L59.4932342,60.4915691 L159.569356,60.4915691 C162.686893,60.4915691 165.214156,57.9643061 165.214156,54.8467692 L165.214156,7.9643075 C165.214156,4.84677063 162.686893,2.31950765 159.569356,2.31950765 L9.52969311,2.31950765 C6.41215624,2.31950765 3.88489327,4.84677063 3.88489327,7.9643075 L3.88489327,54.8467692 C3.88489327,57.9643061 6.41215624,60.4915691 9.52969311,60.4915691 L36.4745353,60.4915691 L38.1240991,79.0674748 Z"/>
          <path stroke="#979797" stroke-linecap="round" stroke-width="2.822" d="M31.4227223 26.7446154L141.651687 26.7446154M91.9600357 41.8830769L142.407797 41.8830769"/>
        </g>
      </g>
      <g opacity=".16" transform="translate(0 955)">
        <g stroke="#979797" stroke-linecap="round" stroke-width="2.903" transform="matrix(-1 0 0 1 37.997 0)">
          <path d="M2.19212255 15.1009091L2.19212255.719090909M16.8062729 20.8536364L25.6490507 9.40337644M22.651933 35.2354545L37.2660833 35.2354545"/>
        </g>
        <g transform="matrix(-1 0 0 1 201 28.25)">
          <use fill="#FFF" xlink:href="#bg_1440-c"/>
          <path stroke="#F5818F" stroke-width="2.903" d="M39.321114,80.6445957 L61.2778674,61.5578812 L165.181013,61.5578812 C168.387622,61.5578812 170.987092,58.9584107 170.987092,55.7518013 L170.987092,8.18214523 C170.987092,4.97553589 168.387622,2.37606541 165.181013,2.37606541 L9.81759577,2.37606541 C6.61098642,2.37606541 4.01151594,4.97553589 4.01151594,8.18214523 L4.01151594,55.7518013 C4.01151594,58.9584107 6.61098642,61.5578812 9.81759577,61.5578812 L37.7779629,61.5578812 L39.321114,80.6445957 Z"/>
          <path stroke="#979797" stroke-linecap="round" stroke-width="2.903" d="M32.5190042 27.2227273L146.593658 27.2227273M95.1683548 42.6318182L147.376147 42.6318182"/>
        </g>
      </g>
      <g opacity=".14" transform="translate(1764 863)">
        <g stroke="#979797" stroke-linecap="round" stroke-width="2.722" transform="matrix(-1 0 0 1 35.161 0)">
          <path d="M2.02853131 14.4327273L2.02853131.687272727M15.5520734 19.9309091L23.7349424 8.98729784M20.9614902 33.6763636L34.4850323 33.6763636"/>
        </g>
        <g transform="matrix(-1 0 0 1 186 27)">
          <use fill="#FFF" xlink:href="#bg_1440-d"/>
          <path stroke="#F5818F" stroke-width="2.722" d="M36.6301649,76.7706014 L57.233294,58.8605746 L152.76606,58.8605746 C155.772256,58.8605746 158.209259,56.423571 158.209259,53.4173748 L158.209259,7.68763611 C158.209259,4.68143987 155.772256,2.24443631 152.76606,2.24443631 L9.17295126,2.24443631 C6.16675502,2.24443631 3.72975146,4.68143987 3.72975146,7.68763611 L3.72975146,53.4173748 C3.72975146,56.423571 6.16675502,58.8605746 9.17295126,58.8605746 L34.9050889,58.8605746 L36.6301649,76.7706014 Z"/>
          <path stroke="#979797" stroke-linecap="round" stroke-width="2.722" d="M30.0922128 26.0181818L135.653833 26.0181818M88.0662388 40.7454545L136.377927 40.7454545"/>
        </g>
      </g>
    </g>
  </g>
</svg>
